-- Merging decision tree log ---
manifest
ADDED from /home/kangyue/nxMobile/ARProjects/Pics.Info2/openCVTutorial1CameraPreview/src/main/AndroidManifest.xml:2:1-71:12
	package
		ADDED from /home/kangyue/nxMobile/ARProjects/Pics.Info2/openCVTutorial1CameraPreview/src/main/AndroidManifest.xml:3:5-42
		INJECTED from /home/kangyue/nxMobile/ARProjects/Pics.Info2/openCVTutorial1CameraPreview/src/main/AndroidManifest.xml
		INJECTED from /home/kangyue/nxMobile/ARProjects/Pics.Info2/openCVTutorial1CameraPreview/src/main/AndroidManifest.xml
	android:versionName
		ADDED from /home/kangyue/nxMobile/ARProjects/Pics.Info2/openCVTutorial1CameraPreview/src/main/AndroidManifest.xml:5:5-31
		INJECTED from /home/kangyue/nxMobile/ARProjects/Pics.Info2/openCVTutorial1CameraPreview/src/main/AndroidManifest.xml
		INJECTED from /home/kangyue/nxMobile/ARProjects/Pics.Info2/openCVTutorial1CameraPreview/src/main/AndroidManifest.xml
	android:versionCode
		ADDED from /home/kangyue/nxMobile/ARProjects/Pics.Info2/openCVTutorial1CameraPreview/src/main/AndroidManifest.xml:4:5-35
		INJECTED from /home/kangyue/nxMobile/ARProjects/Pics.Info2/openCVTutorial1CameraPreview/src/main/AndroidManifest.xml
		INJECTED from /home/kangyue/nxMobile/ARProjects/Pics.Info2/openCVTutorial1CameraPreview/src/main/AndroidManifest.xml
	xmlns:android
		ADDED from /home/kangyue/nxMobile/ARProjects/Pics.Info2/openCVTutorial1CameraPreview/src/main/AndroidManifest.xml:2:11-69
uses-sdk
ADDED from /home/kangyue/nxMobile/ARProjects/Pics.Info2/openCVTutorial1CameraPreview/src/main/AndroidManifest.xml:7:5-44
MERGED from [Pics.Info2:openCVLibrary300:unspecified] /home/kangyue/nxMobile/ARProjects/Pics.Info2/openCVTutorial1CameraPreview/build/intermediates/exploded-aar/Pics.Info2/openCVLibrary300/unspecified/AndroidManifest.xml:7:5-9:41
MERGED from [com.android.support:appcompat-v7:23.4.0] /home/kangyue/nxMobile/ARProjects/Pics.Info2/openCVTutorial1CameraPreview/build/intermediates/exploded-aar/com.android.support/appcompat-v7/23.4.0/AndroidManifest.xml:21:5-23:78
MERGED from [com.android.support:animated-vector-drawable:23.4.0] /home/kangyue/nxMobile/ARProjects/Pics.Info2/openCVTutorial1CameraPreview/build/intermediates/exploded-aar/com.android.support/animated-vector-drawable/23.4.0/AndroidManifest.xml:5:5-44
MERGED from [com.android.support:support-vector-drawable:23.4.0] /home/kangyue/nxMobile/ARProjects/Pics.Info2/openCVTutorial1CameraPreview/build/intermediates/exploded-aar/com.android.support/support-vector-drawable/23.4.0/AndroidManifest.xml:5:5-43
MERGED from [com.android.support:support-v4:23.4.0] /home/kangyue/nxMobile/ARProjects/Pics.Info2/openCVTutorial1CameraPreview/build/intermediates/exploded-aar/com.android.support/support-v4/23.4.0/AndroidManifest.xml:20:5-43
MERGED from [com.android.support.constraint:constraint-layout:1.0.2] /home/kangyue/nxMobile/ARProjects/Pics.Info2/openCVTutorial1CameraPreview/build/intermediates/exploded-aar/com.android.support.constraint/constraint-layout/1.0.2/AndroidManifest.xml:5:5-7:41
	tools:overrideLibrary
		ADDED from [com.android.support:appcompat-v7:23.4.0] /home/kangyue/nxMobile/ARProjects/Pics.Info2/openCVTutorial1CameraPreview/build/intermediates/exploded-aar/com.android.support/appcompat-v7/23.4.0/AndroidManifest.xml:23:9-75
	android:targetSdkVersion
		INJECTED from /home/kangyue/nxMobile/ARProjects/Pics.Info2/openCVTutorial1CameraPreview/src/main/AndroidManifest.xml
		INJECTED from /home/kangyue/nxMobile/ARProjects/Pics.Info2/openCVTutorial1CameraPreview/src/main/AndroidManifest.xml
	android:minSdkVersion
		ADDED from /home/kangyue/nxMobile/ARProjects/Pics.Info2/openCVTutorial1CameraPreview/src/main/AndroidManifest.xml:7:15-41
		INJECTED from /home/kangyue/nxMobile/ARProjects/Pics.Info2/openCVTutorial1CameraPreview/src/main/AndroidManifest.xml
		INJECTED from /home/kangyue/nxMobile/ARProjects/Pics.Info2/openCVTutorial1CameraPreview/src/main/AndroidManifest.xml
supports-screens
ADDED from /home/kangyue/nxMobile/ARProjects/Pics.Info2/openCVTutorial1CameraPreview/src/main/AndroidManifest.xml:9:5-14:39
	android:largeScreens
		ADDED from /home/kangyue/nxMobile/ARProjects/Pics.Info2/openCVTutorial1CameraPreview/src/main/AndroidManifest.xml:11:9-36
	android:smallScreens
		ADDED from /home/kangyue/nxMobile/ARProjects/Pics.Info2/openCVTutorial1CameraPreview/src/main/AndroidManifest.xml:14:9-36
	android:normalScreens
		ADDED from /home/kangyue/nxMobile/ARProjects/Pics.Info2/openCVTutorial1CameraPreview/src/main/AndroidManifest.xml:12:9-37
	android:resizeable
		ADDED from /home/kangyue/nxMobile/ARProjects/Pics.Info2/openCVTutorial1CameraPreview/src/main/AndroidManifest.xml:13:9-34
	android:anyDensity
		ADDED from /home/kangyue/nxMobile/ARProjects/Pics.Info2/openCVTutorial1CameraPreview/src/main/AndroidManifest.xml:10:9-34
uses-permission#android.permission.CAMERA
ADDED from /home/kangyue/nxMobile/ARProjects/Pics.Info2/openCVTutorial1CameraPreview/src/main/AndroidManifest.xml:16:5-65
	android:name
		ADDED from /home/kangyue/nxMobile/ARProjects/Pics.Info2/openCVTutorial1CameraPreview/src/main/AndroidManifest.xml:16:22-62
uses-feature#android.hardware.camera
ADDED from /home/kangyue/nxMobile/ARProjects/Pics.Info2/openCVTutorial1CameraPreview/src/main/AndroidManifest.xml:18:5-20:36
	android:required
		ADDED from /home/kangyue/nxMobile/ARProjects/Pics.Info2/openCVTutorial1CameraPreview/src/main/AndroidManifest.xml:20:9-33
	android:name
		ADDED from /home/kangyue/nxMobile/ARProjects/Pics.Info2/openCVTutorial1CameraPreview/src/main/AndroidManifest.xml:19:9-47
uses-feature#android.hardware.camera.autofocus
ADDED from /home/kangyue/nxMobile/ARProjects/Pics.Info2/openCVTutorial1CameraPreview/src/main/AndroidManifest.xml:21:5-23:36
	android:required
		ADDED from /home/kangyue/nxMobile/ARProjects/Pics.Info2/openCVTutorial1CameraPreview/src/main/AndroidManifest.xml:23:9-33
	android:name
		ADDED from /home/kangyue/nxMobile/ARProjects/Pics.Info2/openCVTutorial1CameraPreview/src/main/AndroidManifest.xml:22:9-57
uses-feature#android.hardware.camera.front
ADDED from /home/kangyue/nxMobile/ARProjects/Pics.Info2/openCVTutorial1CameraPreview/src/main/AndroidManifest.xml:24:5-26:36
	android:required
		ADDED from /home/kangyue/nxMobile/ARProjects/Pics.Info2/openCVTutorial1CameraPreview/src/main/AndroidManifest.xml:26:9-33
	android:name
		ADDED from /home/kangyue/nxMobile/ARProjects/Pics.Info2/openCVTutorial1CameraPreview/src/main/AndroidManifest.xml:25:9-53
uses-feature#android.hardware.camera.front.autofocus
ADDED from /home/kangyue/nxMobile/ARProjects/Pics.Info2/openCVTutorial1CameraPreview/src/main/AndroidManifest.xml:27:5-29:36
	android:required
		ADDED from /home/kangyue/nxMobile/ARProjects/Pics.Info2/openCVTutorial1CameraPreview/src/main/AndroidManifest.xml:29:9-33
	android:name
		ADDED from /home/kangyue/nxMobile/ARProjects/Pics.Info2/openCVTutorial1CameraPreview/src/main/AndroidManifest.xml:28:9-63
uses-feature#android.hardware.location.gps
ADDED from /home/kangyue/nxMobile/ARProjects/Pics.Info2/openCVTutorial1CameraPreview/src/main/AndroidManifest.xml:30:5-66
	android:name
		ADDED from /home/kangyue/nxMobile/ARProjects/Pics.Info2/openCVTutorial1CameraPreview/src/main/AndroidManifest.xml:30:19-63
uses-permission#android.permission.INTERNET
ADDED from /home/kangyue/nxMobile/ARProjects/Pics.Info2/openCVTutorial1CameraPreview/src/main/AndroidManifest.xml:32:5-67
	android:name
		ADDED from /home/kangyue/nxMobile/ARProjects/Pics.Info2/openCVTutorial1CameraPreview/src/main/AndroidManifest.xml:32:22-64
uses-permission#android.permission.ACCESS_FINE_LOCATION
ADDED from /home/kangyue/nxMobile/ARProjects/Pics.Info2/openCVTutorial1CameraPreview/src/main/AndroidManifest.xml:33:5-79
	android:name
		ADDED from /home/kangyue/nxMobile/ARProjects/Pics.Info2/openCVTutorial1CameraPreview/src/main/AndroidManifest.xml:33:22-76
uses-permission#android.permission.ACCESS_COARSE_LOCATION
ADDED from /home/kangyue/nxMobile/ARProjects/Pics.Info2/openCVTutorial1CameraPreview/src/main/AndroidManifest.xml:34:5-81
	android:name
		ADDED from /home/kangyue/nxMobile/ARProjects/Pics.Info2/openCVTutorial1CameraPreview/src/main/AndroidManifest.xml:34:22-78
uses-permission#android.permission.WRITE_EXTERNAL_STORAGE
ADDED from /home/kangyue/nxMobile/ARProjects/Pics.Info2/openCVTutorial1CameraPreview/src/main/AndroidManifest.xml:35:5-81
	android:name
		ADDED from /home/kangyue/nxMobile/ARProjects/Pics.Info2/openCVTutorial1CameraPreview/src/main/AndroidManifest.xml:35:22-78
uses-permission#android.permission.READ_PHONE_STATE
ADDED from /home/kangyue/nxMobile/ARProjects/Pics.Info2/openCVTutorial1CameraPreview/src/main/AndroidManifest.xml:36:5-75
	android:name
		ADDED from /home/kangyue/nxMobile/ARProjects/Pics.Info2/openCVTutorial1CameraPreview/src/main/AndroidManifest.xml:36:22-72
uses-permission#android.permission.READ_EXTERNAL_STORAGE
ADDED from /home/kangyue/nxMobile/ARProjects/Pics.Info2/openCVTutorial1CameraPreview/src/main/AndroidManifest.xml:37:5-80
	android:name
		ADDED from /home/kangyue/nxMobile/ARProjects/Pics.Info2/openCVTutorial1CameraPreview/src/main/AndroidManifest.xml:37:22-77
uses-permission#com.google.android.providers.gsf.permission.READ_GSERVICES
ADDED from /home/kangyue/nxMobile/ARProjects/Pics.Info2/openCVTutorial1CameraPreview/src/main/AndroidManifest.xml:39:5-97
	android:name
		ADDED from /home/kangyue/nxMobile/ARProjects/Pics.Info2/openCVTutorial1CameraPreview/src/main/AndroidManifest.xml:39:22-95
uses-permission#android.permission.ACCESS_NETWORK_STATE
ADDED from /home/kangyue/nxMobile/ARProjects/Pics.Info2/openCVTutorial1CameraPreview/src/main/AndroidManifest.xml:40:9-83
	android:name
		ADDED from /home/kangyue/nxMobile/ARProjects/Pics.Info2/openCVTutorial1CameraPreview/src/main/AndroidManifest.xml:40:26-80
application
ADDED from /home/kangyue/nxMobile/ARProjects/Pics.Info2/openCVTutorial1CameraPreview/src/main/AndroidManifest.xml:43:5-69:19
MERGED from [com.android.support:appcompat-v7:23.4.0] /home/kangyue/nxMobile/ARProjects/Pics.Info2/openCVTutorial1CameraPreview/build/intermediates/exploded-aar/com.android.support/appcompat-v7/23.4.0/AndroidManifest.xml:25:5-20
MERGED from [com.android.support:animated-vector-drawable:23.4.0] /home/kangyue/nxMobile/ARProjects/Pics.Info2/openCVTutorial1CameraPreview/build/intermediates/exploded-aar/com.android.support/animated-vector-drawable/23.4.0/AndroidManifest.xml:7:5-20
MERGED from [com.android.support:support-vector-drawable:23.4.0] /home/kangyue/nxMobile/ARProjects/Pics.Info2/openCVTutorial1CameraPreview/build/intermediates/exploded-aar/com.android.support/support-vector-drawable/23.4.0/AndroidManifest.xml:7:5-20
MERGED from [com.android.support:support-v4:23.4.0] /home/kangyue/nxMobile/ARProjects/Pics.Info2/openCVTutorial1CameraPreview/build/intermediates/exploded-aar/com.android.support/support-v4/23.4.0/AndroidManifest.xml:22:5-20
MERGED from [com.android.support.constraint:constraint-layout:1.0.2] /home/kangyue/nxMobile/ARProjects/Pics.Info2/openCVTutorial1CameraPreview/build/intermediates/exploded-aar/com.android.support.constraint/constraint-layout/1.0.2/AndroidManifest.xml:9:5-20
	android:label
		ADDED from /home/kangyue/nxMobile/ARProjects/Pics.Info2/openCVTutorial1CameraPreview/src/main/AndroidManifest.xml:45:9-41
	android:icon
		ADDED from /home/kangyue/nxMobile/ARProjects/Pics.Info2/openCVTutorial1CameraPreview/src/main/AndroidManifest.xml:44:9-38
	android:theme
		ADDED from /home/kangyue/nxMobile/ARProjects/Pics.Info2/openCVTutorial1CameraPreview/src/main/AndroidManifest.xml:46:9-67
activity#org.opencv.samples.PicsInfo.ARActivity
ADDED from /home/kangyue/nxMobile/ARProjects/Pics.Info2/openCVTutorial1CameraPreview/src/main/AndroidManifest.xml:47:9-51:53
	android:screenOrientation
		ADDED from /home/kangyue/nxMobile/ARProjects/Pics.Info2/openCVTutorial1CameraPreview/src/main/AndroidManifest.xml:51:13-50
	android:label
		ADDED from /home/kangyue/nxMobile/ARProjects/Pics.Info2/openCVTutorial1CameraPreview/src/main/AndroidManifest.xml:50:13-45
	android:configChanges
		ADDED from /home/kangyue/nxMobile/ARProjects/Pics.Info2/openCVTutorial1CameraPreview/src/main/AndroidManifest.xml:49:13-63
	android:name
		ADDED from /home/kangyue/nxMobile/ARProjects/Pics.Info2/openCVTutorial1CameraPreview/src/main/AndroidManifest.xml:48:13-39
activity#org.opencv.samples.PicsInfo.MainActivity
ADDED from /home/kangyue/nxMobile/ARProjects/Pics.Info2/openCVTutorial1CameraPreview/src/main/AndroidManifest.xml:52:9-61:20
	android:screenOrientation
		ADDED from /home/kangyue/nxMobile/ARProjects/Pics.Info2/openCVTutorial1CameraPreview/src/main/AndroidManifest.xml:55:13-50
	android:configChanges
		ADDED from /home/kangyue/nxMobile/ARProjects/Pics.Info2/openCVTutorial1CameraPreview/src/main/AndroidManifest.xml:54:13-63
	android:name
		ADDED from /home/kangyue/nxMobile/ARProjects/Pics.Info2/openCVTutorial1CameraPreview/src/main/AndroidManifest.xml:53:13-41
intent-filter#android.intent.action.MAIN+android.intent.category.LAUNCHER
ADDED from /home/kangyue/nxMobile/ARProjects/Pics.Info2/openCVTutorial1CameraPreview/src/main/AndroidManifest.xml:56:13-60:29
action#android.intent.action.MAIN
ADDED from /home/kangyue/nxMobile/ARProjects/Pics.Info2/openCVTutorial1CameraPreview/src/main/AndroidManifest.xml:57:17-69
	android:name
		ADDED from /home/kangyue/nxMobile/ARProjects/Pics.Info2/openCVTutorial1CameraPreview/src/main/AndroidManifest.xml:57:25-66
category#android.intent.category.LAUNCHER
ADDED from /home/kangyue/nxMobile/ARProjects/Pics.Info2/openCVTutorial1CameraPreview/src/main/AndroidManifest.xml:59:17-77
	android:name
		ADDED from /home/kangyue/nxMobile/ARProjects/Pics.Info2/openCVTutorial1CameraPreview/src/main/AndroidManifest.xml:59:27-74
activity#org.opencv.samples.PicsInfo.AboutActivity
ADDED from /home/kangyue/nxMobile/ARProjects/Pics.Info2/openCVTutorial1CameraPreview/src/main/AndroidManifest.xml:62:9-65:53
	android:screenOrientation
		ADDED from /home/kangyue/nxMobile/ARProjects/Pics.Info2/openCVTutorial1CameraPreview/src/main/AndroidManifest.xml:65:13-50
	android:configChanges
		ADDED from /home/kangyue/nxMobile/ARProjects/Pics.Info2/openCVTutorial1CameraPreview/src/main/AndroidManifest.xml:64:13-63
	android:name
		ADDED from /home/kangyue/nxMobile/ARProjects/Pics.Info2/openCVTutorial1CameraPreview/src/main/AndroidManifest.xml:63:13-42
activity#org.opencv.samples.PicsInfo.GpsActivity
ADDED from /home/kangyue/nxMobile/ARProjects/Pics.Info2/openCVTutorial1CameraPreview/src/main/AndroidManifest.xml:66:9-68:52
	android:screenOrientation
		ADDED from /home/kangyue/nxMobile/ARProjects/Pics.Info2/openCVTutorial1CameraPreview/src/main/AndroidManifest.xml:68:13-50
	android:configChanges
		ADDED from /home/kangyue/nxMobile/ARProjects/Pics.Info2/openCVTutorial1CameraPreview/src/main/AndroidManifest.xml:67:13-63
	android:name
		ADDED from /home/kangyue/nxMobile/ARProjects/Pics.Info2/openCVTutorial1CameraPreview/src/main/AndroidManifest.xml:66:19-46
